acpi 1.7-3
acpi_call 1.2.2-47
alsa-utils 1.2.7-1
android-file-transfer 4.2-2
arandr 0.1.10-7
autoconf 2.71-1
automake 1.16.5-1
baobab 42.0-1
base 2-2
biber 1:2.17-2
bison 3.8.2-4
blender 17:3.2.0-3
bluez 5.64-2
bluez-hid2hci 5.64-2
bluez-utils 5.64-2
brave-bin 1:1.38.111-1
dmenu 5.1-1
docker 1:20.10.17-1
docker-compose 2.6.0-1
downgrade 10.1.0-1
efibootmgr 17-2
fakeroot 1.29-1
feh 3.9-1
flameshot 11.0.0-5
flex 2.6.4-3
gcc 12.1.0-2
gdb 12.1-1
gimp 2.10.32-1
git 2.36.1-1
gnu-netcat 0.7.1-8
groff 1.22.4-7
grub 2:2.06.r261.g2f4430cc0-1
gtk2 2.24.33-2
gtk4 1:4.6.5-1
htop 3.2.1-1
i3lock 2.14-1
imagemagick 7.1.0.37-1
inetutils 2.2-1
inxi 3.3.11.1-1
keybase-bin 5.9.3_20220216215910+c82d65a685-1
lib32-glibc 2.35-6
libfido2 1.11.0-1
libgnome-keyring 3.12.0+13+g4f8ab73-3
libisoburn 1.5.4-2
libx11 1.8.1-2
libxft-bgra-git 2.3.4.r113.98b121f-1
libxinerama 1.1.4-4
linux 5.18.5.arch1-1
linux-firmware 20220509.b19cbdc-1
m4 1.4.19-1
make 4.3-3
man-db 2.10.2-1
mpv 1:0.34.1-4
mtools 1:4.0.40-1
mtpfs 1.1-4
neovim 0.7.0-3
network-manager-applet 1.28.0-1
networkmanager 1.38.2-1
npm 8.5.5-1
numlockx 1.2-5
obs-studio 27.2.4-1
patch 2.7.6-8
pavucontrol 1:5.0+r35+g964f298-1
picom-jonaburg-git 0.1-4
pipewire 1:0.3.52-2
pkgconf 1.8.0-1
playerctl 2.4.1-2
postman-bin 9.15.2-1
pulseaudio-alsa 1:1.2.7.1-1
pulseaudio-bluetooth 16.0-1
python-pip 21.0-1
qbittorrent 4.4.3.1-3
qemu-desktop 7.0.0-10
qemu-emulators-full 7.0.0-10
r 4.2.0-4
ranger 1.9.3-4
rofi 1.7.3-1
rust-analyzer 20220613-1
scrcpy 1.23-2
seahorse 1:42.0-1
sudo 1.9.11.p2-1
telegram-desktop 3.7.3-1
texlive-bibtexextra 2022.63023-1
texlive-bin 2022.62885-1
texlive-core 2022.63035-1
texlive-fontsextra 2022.62977-1
texlive-latexextra 2022.63034-1
texlive-pictures 2022.62992-1
tlp 1.5.0-5
tmux 3.3_a-2
ttf-font-awesome 6.1.1-1
ttf-nerd-fonts-hack-complete-git 20211129-1
unzip 6.0-18
virtualbox 6.1.34-4
vlc 3.0.17.4-6
vscodium-bin 1.67.2-1
webkit2gtk 2.36.3-1
which 2.21-5
wireless_tools 30.pre9-3
x11-ssh-askpass 1.2.4.1-7
xcalib 0.10-3
xclip 0.13-3
xf86-video-amdgpu 22.0.0-1
xorg-server 21.1.3-7
xorg-xev 1.2.4-1
xorg-xhost 1.0.8-3
xorg-xinit 1.4.1-3
xorg-xrandr 1.5.1-2
xorg-xsetroot 1.1.2-3
yay-git 11.0.2.r25.gdf6af2e-1
zathura 0.4.9-1
zathura-pdf-mupdf 0.3.8-1
zsh 5.9-1
